\relax 
\ifx\hyper@anchor\@undefined
\global \let \oldcontentsline\contentsline
\gdef \contentsline#1#2#3#4{\oldcontentsline{#1}{#2}{#3}}
\global \let \oldnewlabel\newlabel
\gdef \newlabel#1#2{\newlabelxx{#1}#2}
\gdef \newlabelxx#1#2#3#4#5#6{\oldnewlabel{#1}{{#2}{#3}}}
\AtEndDocument{\let \contentsline\oldcontentsline
\let \newlabel\oldnewlabel}
\else
\global \let \hyper@last\relax 
\fi

\@input{includes/titlepage_logo.aux}
\@writefile{toc}{\contentsline {subsection}{Problem description}{2}{section*.2}}
\@writefile{toc}{\contentsline {subsection}{Tools}{3}{section*.3}}
\@writefile{toc}{\contentsline {subsection}{The application : managing data}{4}{section*.4}}
\@writefile{toc}{\contentsline {subsection}{The application : using the solver}{5}{section*.5}}
\@writefile{toc}{\contentsline {subsection}{Quick demo}{6}{section*.6}}
\@writefile{toc}{\contentsline {subsection}{Conclusion}{7}{section*.7}}
\@writefile{toc}{\contentsline {subsection}{Questions}{8}{section*.8}}
\@writefile{toc}{\contentsline {subsection}{The end}{9}{section*.9}}
